﻿Severity	Timestamp	ProcessId	ThreadId	UserId	Exe Type	Exe Version	Server Started	Entry Type	ActiveDocSessions	DocSessions	ActiveAnonymousDocSessions	AnonymousDocSessions	ActiveTunneledDocSessions	TunneledDocSessions	DocSessionStarts	ActiveDocs	RefDocs	LoadedDocs	DocLoads	DocLoadFails	Calls	Selections	ActiveIpAddrs	IpAddrs	ActiveUsers	Users	CPULoad	VMCommitted(MB)	VMAllocated(MB)	VMFree(MB)	VMLargestFreeBlock(MB)	CacheHits	CacheLookups	CacheObjectAdded	CacheBytesAdded	CacheTimeAdded	CacheReplaced
INFO	20161005T094856.161+0530	1920	3276	Internal\Engine	RLS64	3.0.50501.0409.10	20161004T160042.000+0530	Normal	1	2	0	0	0	0	0	1	2	2	0	0	1	0	1	2	1	1	0	30	166	5858	5858	0	0	0	0	0.000000	0
INFO	20161005T095400.149+0530	1920	3276	Internal\Engine	RLS64	3.0.50501.0409.10	20161004T160042.000+0530	Normal	1	2	0	0	0	0	0	1	2	2	0	0	1	0	1	2	1	1	0	30	166	5856	5856	0	0	0	0	0.000000	0
INFO	20161005T095900.122+0530	1920	3276	Internal\Engine	RLS64	3.0.50501.0409.10	20161004T160042.000+0530	Normal	0	2	0	0	0	0	0	0	2	2	0	0	0	0	0	2	0	1	1	30	166	5855	5855	0	0	0	0	0.000000	0
INFO	20161005T100400.125+0530	1920	3276	Internal\Engine	RLS64	3.0.50501.0409.10	20161004T160042.000+0530	Normal	1	2	0	0	0	0	0	1	2	2	0	0	84	0	1	2	1	1	0	33	170	5761	5761	47	69	14	11008	1.000000	7
INFO	20161005T100900.156+0530	1920	3276	Internal\Engine	RLS64	3.0.50501.0409.10	20161004T160042.000+0530	Normal	1	1	0	0	0	0	1	1	1	1	1	0	69	0	1	1	1	1	0	33	169	5849	5849	85	107	25	26880	0.000000	11
INFO	20161005T101400.098+0530	1920	3276	Internal\Engine	RLS64	3.0.50501.0409.10	20161004T160042.000+0530	Normal	0	1	0	0	0	0	0	0	1	1	0	0	0	0	0	1	0	1	0	33	169	5893	5893	0	0	0	0	0.000000	0
INFO	20161005T101901.007+0530	1920	3276	Internal\Engine	RLS64	3.0.50501.0409.10	20161004T160042.000+0530	Normal	0	1	0	0	0	0	0	0	1	1	0	0	0	0	0	1	0	1	0	33	170	5891	5891	0	0	0	0	0.000000	0
INFO	20161005T102400.153+0530	1920	3276	Internal\Engine	RLS64	3.0.50501.0409.10	20161004T160042.000+0530	Normal	0	1	0	0	0	0	0	0	1	1	0	0	0	0	0	1	0	1	0	33	170	5895	5895	0	0	0	0	0.000000	0
INFO	20161005T102901.000+0530	1920	3276	Internal\Engine	RLS64	3.0.50501.0409.10	20161004T160042.000+0530	Normal	0	1	0	0	0	0	0	0	1	1	0	0	0	0	0	1	0	1	0	33	170	5692	5692	0	0	0	0	0.000000	0
INFO	20161005T103400.068+0530	1920	3276	Internal\Engine	RLS64	3.0.50501.0409.10	20161004T160042.000+0530	Normal	0	1	0	0	0	0	0	0	1	1	0	0	0	0	0	1	0	1	0	33	170	5862	5862	0	0	0	0	0.000000	0
INFO	20161005T103900.088+0530	1920	3276	Internal\Engine	RLS64	3.0.50501.0409.10	20161004T160042.000+0530	Normal	0	1	0	0	0	0	0	0	1	1	0	0	0	0	0	1	0	1	0	33	169	5863	5863	0	0	0	0	0.000000	0
INFO	20161005T104400.170+0530	1920	3276	Internal\Engine	RLS64	3.0.50501.0409.10	20161004T160042.000+0530	Normal	0	1	0	0	0	0	0	0	1	1	0	0	0	0	0	1	0	1	0	33	170	5897	5897	0	0	0	0	0.000000	0
INFO	20161005T104900.080+0530	1920	3276	Internal\Engine	RLS64	3.0.50501.0409.10	20161004T160042.000+0530	Normal	0	1	0	0	0	0	0	0	1	1	0	0	0	0	0	1	0	1	0	33	170	5909	5909	0	0	0	0	0.000000	0
INFO	20161005T105400.022+0530	1920	3276	Internal\Engine	RLS64	3.0.50501.0409.10	20161004T160042.000+0530	Normal	0	1	0	0	0	0	0	0	1	1	0	0	0	0	0	1	0	1	0	33	169	5909	5909	0	0	0	0	0.000000	0
INFO	20161005T105900.182+0530	1920	3276	Internal\Engine	RLS64	3.0.50501.0409.10	20161004T160042.000+0530	Normal	0	1	0	0	0	0	0	0	1	1	0	0	0	0	0	1	0	1	0	33	169	5910	5910	0	0	0	0	0.000000	0
INFO	20161005T110401.013+0530	1920	3276	Internal\Engine	RLS64	3.0.50501.0409.10	20161004T160042.000+0530	Normal	0	1	0	0	0	0	0	0	1	1	0	0	0	0	0	1	0	1	0	33	170	5910	5910	0	0	0	0	0.000000	0
INFO	20161005T110900.159+0530	1920	3276	Internal\Engine	RLS64	3.0.50501.0409.10	20161004T160042.000+0530	Normal	0	1	0	0	0	0	0	0	1	1	0	0	0	0	0	1	0	1	0	33	170	5909	5909	0	0	0	0	0.000000	0
INFO	20161005T111401.006+0530	1920	3276	Internal\Engine	RLS64	3.0.50501.0409.10	20161004T160042.000+0530	Normal	0	1	0	0	0	0	0	0	1	1	0	0	0	0	0	1	0	1	0	33	169	5910	5910	0	0	0	0	0.000000	0
INFO	20161005T111900.136+0530	1920	3276	Internal\Engine	RLS64	3.0.50501.0409.10	20161004T160042.000+0530	Normal	0	1	0	0	0	0	0	0	1	1	0	0	0	0	0	1	0	1	0	33	170	5909	5909	0	0	0	0	0.000000	0
INFO	20161005T112400.015+0530	1920	3276	Internal\Engine	RLS64	3.0.50501.0409.10	20161004T160042.000+0530	Normal	0	1	0	0	0	0	0	0	1	1	0	0	0	0	0	1	0	1	0	33	170	5911	5911	0	0	0	0	0.000000	0
INFO	20161005T154256.468+0530	4340	5140	Internal\Engine	RLS64	3.0.50501.0409.10	20161005T154214.000+0530	Server starting	0	0	0	0	0	0	0	0	0	0	0	0	0	0	0	0	0	0	0	13	122	4939	4939	0	0	0	0	0.000000	0
INFO	20161005T154500.045+0530	4340	5140	Internal\Engine	RLS64	3.0.50501.0409.10	20161005T154214.000+0530	Normal	1	1	0	0	0	0	1	1	1	1	1	0	48	0	1	1	1	1	0	23	138	4691	4691	48	85	47	41088	2.000000	14
INFO	20161005T154541.453+0530	4480	2644	Internal\Engine	RLS64	3.0.50501.0409.10	20161005T154539.000+0530	Server starting	0	0	0	0	0	0	0	0	0	0	0	0	0	0	0	0	0	0	0	13	120	4928	4928	0	0	0	0	0.000000	0
INFO	20161005T154801.351+0530	3440	5736	Internal\Engine	RLS64	3.0.50501.0409.10	20161005T154758.000+0530	Server starting	0	0	0	0	0	0	0	0	0	0	0	0	0	0	0	0	0	0	0	13	119	4876	4876	0	0	0	0	0.000000	0
INFO	20161005T155000.107+0530	3440	5736	Internal\Engine	RLS64	3.0.50501.0409.10	20161005T154758.000+0530	Normal	1	1	0	0	0	0	1	1	1	1	1	0	97	0	1	1	1	1	0	20	131	4656	4656	88	148	66	70848	26.000000	17
INFO	20161005T155129.773+0530	4120	5456	Internal\Engine	RLS64	3.0.50501.0409.10	20161005T155126.000+0530	Server starting	0	0	0	0	0	0	0	0	0	0	0	0	0	0	0	0	0	0	0	13	120	4844	4844	0	0	0	0	0.000000	0
INFO	20161005T155500.086+0530	4120	5456	Internal\Engine	RLS64	3.0.50501.0409.10	20161005T155126.000+0530	Normal	1	1	0	0	0	0	1	1	1	1	1	0	97	0	1	1	1	1	0	20	130	4646	4646	77	134	63	61952	2.000000	17
INFO	20161005T160001.006+0530	4120	5456	Internal\Engine	RLS64	3.0.50501.0409.10	20161005T155126.000+0530	Normal	1	1	0	0	0	0	1	1	1	1	0	0	99	0	1	1	1	1	0	24	138	4596	4596	31	33	2	14592	0.000000	0
INFO	20161005T160500.078+0530	4120	5456	Internal\Engine	RLS64	3.0.50501.0409.10	20161005T155126.000+0530	Normal	1	1	0	0	0	0	1	1	1	1	0	0	91	0	1	1	1	1	0	24	140	4872	4872	30	31	1	4096	0.000000	0
INFO	20161005T161000.171+0530	4120	5456	Internal\Engine	RLS64	3.0.50501.0409.10	20161005T155126.000+0530	Normal	1	1	0	0	0	0	3	1	1	1	1	0	108	0	1	1	1	1	0	26	143	4951	4951	85	85	0	0	0.000000	0
INFO	20161005T161500.049+0530	4120	5456	Internal\Engine	RLS64	3.0.50501.0409.10	20161005T155126.000+0530	Normal	1	1	0	0	0	0	1	1	1	1	1	0	62	2	1	1	1	1	0	27	141	4997	4997	83	94	10	13888	0.000000	1
INFO	20161005T162000.055+0530	4120	5456	Internal\Engine	RLS64	3.0.50501.0409.10	20161005T155126.000+0530	Normal	2	2	0	0	0	0	2	2	2	2	0	0	259	0	2	2	1	1	0	33	162	4816	4816	263	344	70	96944	0.000000	12
INFO	20161005T162500.178+0530	4120	5456	Internal\Engine	RLS64	3.0.50501.0409.10	20161005T155126.000+0530	Normal	1	2	0	0	0	0	0	1	2	2	0	0	40	0	1	2	1	1	0	33	160	4790	4790	22	30	6	28608	0.000000	1
INFO	20161005T163000.018+0530	4120	5456	Internal\Engine	RLS64	3.0.50501.0409.10	20161005T155126.000+0530	Normal	1	2	0	0	0	0	0	1	2	2	0	0	64	0	1	2	1	1	0	35	164	4528	4528	0	0	0	0	0.000000	0
INFO	20161005T163501.010+0530	4120	5456	Internal\Engine	RLS64	3.0.50501.0409.10	20161005T155126.000+0530	Normal	1	2	0	0	0	0	0	1	2	2	0	0	64	0	1	2	1	1	0	36	166	4584	4584	10	12	2	9600	0.000000	0
INFO	20161005T164000.018+0530	4120	5456	Internal\Engine	RLS64	3.0.50501.0409.10	20161005T155126.000+0530	Normal	1	2	0	0	0	0	0	1	2	2	0	0	3	0	1	2	1	1	0	35	163	4599	4599	3	3	0	0	0.000000	0
INFO	20161005T164501.010+0530	4120	5456	Internal\Engine	RLS64	3.0.50501.0409.10	20161005T155126.000+0530	Normal	0	2	0	0	0	0	0	0	2	2	0	0	0	0	0	2	0	1	0	35	164	4639	4639	0	0	0	0	0.000000	0
INFO	20161005T165000.100+0530	4120	5456	Internal\Engine	RLS64	3.0.50501.0409.10	20161005T155126.000+0530	Normal	0	2	0	0	0	0	0	0	2	2	0	0	0	0	0	2	0	1	0	35	164	4626	4626	0	0	0	0	0.000000	0
INFO	20161005T165500.049+0530	4120	5456	Internal\Engine	RLS64	3.0.50501.0409.10	20161005T155126.000+0530	Normal	0	2	0	0	0	0	0	0	2	2	0	0	0	0	0	2	0	1	0	35	163	4646	4646	0	0	0	0	0.000000	0
INFO	20161005T170000.022+0530	4120	5456	Internal\Engine	RLS64	3.0.50501.0409.10	20161005T155126.000+0530	Normal	0	2	0	0	0	0	0	0	2	2	0	0	0	0	0	2	0	1	0	35	164	4646	4646	0	0	0	0	0.000000	0
INFO	20161005T170500.161+0530	4120	5456	Internal\Engine	RLS64	3.0.50501.0409.10	20161005T155126.000+0530	Normal	0	2	0	0	0	0	0	0	2	2	0	0	0	0	0	2	0	1	0	35	163	4646	4646	0	0	0	0	0.000000	0
INFO	20161005T171000.047+0530	4120	5456	Internal\Engine	RLS64	3.0.50501.0409.10	20161005T155126.000+0530	Normal	0	2	0	0	0	0	0	0	2	2	0	0	69	0	0	2	0	1	0	35	163	4535	4535	0	0	0	0	0.000000	0
INFO	20161005T171500.140+0530	4120	5456	Internal\Engine	RLS64	3.0.50501.0409.10	20161005T155126.000+0530	Normal	1	2	0	0	0	0	0	1	2	2	0	0	7	0	1	2	1	1	0	35	163	4526	4526	2	2	0	0	0.000000	0
INFO	20161005T172001.008+0530	4120	5456	Internal\Engine	RLS64	3.0.50501.0409.10	20161005T155126.000+0530	Normal	1	2	0	0	0	0	0	1	2	2	0	0	22	0	1	2	1	1	0	35	164	4658	4658	2	2	0	0	0.000000	0
INFO	20161005T172500.188+0530	4120	5456	Internal\Engine	RLS64	3.0.50501.0409.10	20161005T155126.000+0530	Normal	1	2	0	0	0	0	0	1	2	2	0	0	1	0	1	2	1	1	0	35	164	4634	4634	0	0	0	0	0.000000	0
INFO	20161005T173001.000+0530	4120	5456	Internal\Engine	RLS64	3.0.50501.0409.10	20161005T155126.000+0530	Normal	1	2	0	0	0	0	0	1	2	2	0	0	3	0	1	2	1	1	0	35	164	4621	4621	0	0	0	0	0.000000	0
INFO	20161005T173500.201+0530	4120	5456	Internal\Engine	RLS64	3.0.50501.0409.10	20161005T155126.000+0530	Normal	1	2	0	0	0	0	0	1	2	2	0	0	120	0	1	2	1	1	0	36	166	4579	4579	4	4	0	0	0.000000	0
INFO	20161005T174000.037+0530	4120	5456	Internal\Engine	RLS64	3.0.50501.0409.10	20161005T155126.000+0530	Normal	0	2	0	0	0	0	0	0	2	2	0	0	0	0	0	2	0	1	0	35	164	4586	4586	0	0	0	0	0.000000	0
INFO	20161005T174500.017+0530	4120	5456	Internal\Engine	RLS64	3.0.50501.0409.10	20161005T155126.000+0530	Normal	0	2	0	0	0	0	0	0	2	2	0	0	0	0	0	2	0	1	0	35	164	4586	4586	0	0	0	0	0.000000	0
INFO	20161005T175000.189+0530	4120	5456	Internal\Engine	RLS64	3.0.50501.0409.10	20161005T155126.000+0530	Normal	0	2	0	0	0	0	0	0	2	2	0	0	0	0	0	2	0	1	0	35	164	4587	4587	0	0	0	0	0.000000	0
INFO	20161005T175500.031+0530	4120	5456	Internal\Engine	RLS64	3.0.50501.0409.10	20161005T155126.000+0530	Normal	0	2	0	0	0	0	0	0	2	2	0	0	0	0	0	2	0	1	0	35	164	4587	4587	0	0	0	0	0.000000	0
INFO	20161005T180000.045+0530	4120	5456	Internal\Engine	RLS64	3.0.50501.0409.10	20161005T155126.000+0530	Normal	0	2	0	0	0	0	0	0	2	2	0	0	0	0	0	2	0	1	0	35	164	4581	4581	0	0	0	0	0.000000	0
INFO	20161005T180501.004+0530	4120	5456	Internal\Engine	RLS64	3.0.50501.0409.10	20161005T155126.000+0530	Normal	0	2	0	0	0	0	0	0	2	2	0	0	0	0	0	2	0	1	0	35	164	4580	4580	0	0	0	0	0.000000	0
INFO	20161005T181000.162+0530	4120	5456	Internal\Engine	RLS64	3.0.50501.0409.10	20161005T155126.000+0530	Normal	0	2	0	0	0	0	0	0	2	2	0	0	0	0	0	2	0	1	0	35	164	4577	4577	0	0	0	0	0.000000	0
INFO	20161005T181501.001+0530	4120	5456	Internal\Engine	RLS64	3.0.50501.0409.10	20161005T155126.000+0530	Normal	1	1	0	0	0	0	0	1	1	1	0	0	63	0	1	1	1	1	0	36	163	4665	4665	0	0	0	0	0.000000	0
INFO	20161005T182000.096+0530	4120	5456	Internal\Engine	RLS64	3.0.50501.0409.10	20161005T155126.000+0530	Normal	1	1	0	0	0	0	0	1	1	1	0	0	8	0	1	1	1	1	0	36	163	4698	4698	0	0	0	0	0.000000	0
INFO	20161005T182500.119+0530	4120	5456	Internal\Engine	RLS64	3.0.50501.0409.10	20161005T155126.000+0530	Normal	0	1	0	0	0	0	0	0	1	1	0	0	0	0	0	1	0	1	0	36	163	4685	4685	0	0	0	0	0.000000	0
INFO	20161005T183000.052+0530	4120	5456	Internal\Engine	RLS64	3.0.50501.0409.10	20161005T155126.000+0530	Normal	2	2	0	0	0	0	1	2	2	2	0	0	74	0	2	2	1	1	0	36	166	4657	4657	174	174	0	0	0.000000	0
INFO	20161005T183500.196+0530	4120	5456	Internal\Engine	RLS64	3.0.50501.0409.10	20161005T155126.000+0530	Normal	0	2	0	0	0	0	0	0	2	2	0	0	0	0	0	2	0	1	0	36	164	4701	4701	0	0	0	0	0.000000	0
INFO	20161005T184000.063+0530	4120	5456	Internal\Engine	RLS64	3.0.50501.0409.10	20161005T155126.000+0530	Normal	1	2	0	0	0	0	0	1	2	2	0	0	171	0	1	2	1	1	0	36	166	4579	4579	0	0	0	0	0.000000	0
INFO	20161005T184500.047+0530	4120	5456	Internal\Engine	RLS64	3.0.50501.0409.10	20161005T155126.000+0530	Normal	1	2	0	0	0	0	0	1	2	2	0	0	100	0	1	2	1	1	0	36	164	4514	4514	11	13	2	19584	2.000000	0
INFO	20161005T185001.007+0530	4120	5456	Internal\Engine	RLS64	3.0.50501.0409.10	20161005T155126.000+0530	Normal	1	2	0	0	0	0	0	1	2	2	0	0	81	0	1	2	1	1	0	36	164	4538	4538	0	0	0	0	0.000000	0
INFO	20161005T185500.117+0530	4120	5456	Internal\Engine	RLS64	3.0.50501.0409.10	20161005T155126.000+0530	Normal	0	0	0	0	0	0	0	0	0	2	0	0	98	0	0	0	0	0	0	36	166	4491	4491	6	6	0	0	0.000000	0
INFO	20161005T190001.003+0530	4120	5456	Internal\Engine	RLS64	3.0.50501.0409.10	20161005T155126.000+0530	Normal	1	1	0	0	0	0	3	1	1	1	1	0	66	0	1	1	1	1	0	36	167	4535	4535	97	97	0	0	0.000000	0
INFO	20161005T190500.119+0530	4120	5456	Internal\Engine	RLS64	3.0.50501.0409.10	20161005T155126.000+0530	Normal	1	1	0	0	0	0	2	1	1	1	0	0	103	2	1	1	1	1	0	36	165	4445	4445	97	125	18	17280	0.000000	7
INFO	20161005T191000.102+0530	4120	5456	Internal\Engine	RLS64	3.0.50501.0409.10	20161005T155126.000+0530	Normal	1	1	0	0	0	0	1	1	1	1	0	0	27	0	1	1	1	1	0	36	164	4747	4747	15	15	0	0	0.000000	0
INFO	20161005T191500.133+0530	4120	5456	Internal\Engine	RLS64	3.0.50501.0409.10	20161005T155126.000+0530	Normal	1	1	0	0	0	0	3	1	1	1	0	0	66	0	1	1	1	1	0	36	167	4743	4743	45	45	0	0	0.000000	0
INFO	20161005T192000.128+0530	4120	5456	Internal\Engine	RLS64	3.0.50501.0409.10	20161005T155126.000+0530	Normal	0	1	0	0	0	0	0	0	1	1	0	0	0	0	0	1	0	1	0	36	165	4996	4996	0	0	0	0	0.000000	0
INFO	20161005T192500.099+0530	4120	5456	Internal\Engine	RLS64	3.0.50501.0409.10	20161005T155126.000+0530	Normal	2	2	0	0	0	0	2	2	2	2	0	0	124	0	2	2	1	1	0	36	176	4903	4903	195	195	0	0	0.000000	0
INFO	20161005T193000.079+0530	4120	5456	Internal\Engine	RLS64	3.0.50501.0409.10	20161005T155126.000+0530	Normal	1	2	0	0	0	0	0	1	2	2	0	0	111	0	1	1	1	1	0	36	178	4911	4911	6	7	1	10688	0.000000	0
INFO	20161005T193501.011+0530	4120	5456	Internal\Engine	RLS64	3.0.50501.0409.10	20161005T155126.000+0530	Normal	0	2	0	0	0	0	0	0	2	2	0	0	0	0	0	1	0	1	0	36	176	4856	4856	0	0	0	0	0.000000	0
INFO	20161005T194000.031+0530	4120	5456	Internal\Engine	RLS64	3.0.50501.0409.10	20161005T155126.000+0530	Normal	0	2	0	0	0	0	0	0	2	2	0	0	0	0	0	1	0	1	0	36	176	4867	4867	0	0	0	0	0.000000	0
INFO	20161005T194501.007+0530	4120	5456	Internal\Engine	RLS64	3.0.50501.0409.10	20161005T155126.000+0530	Normal	0	2	0	0	0	0	0	0	2	2	0	0	0	0	0	1	0	1	0	36	175	4866	4866	0	0	0	0	0.000000	0
INFO	20161005T195000.033+0530	4120	5456	Internal\Engine	RLS64	3.0.50501.0409.10	20161005T155126.000+0530	Normal	0	2	0	0	0	0	0	0	2	2	0	0	0	0	0	1	0	1	0	36	176	4868	4868	0	0	0	0	0.000000	0
INFO	20161005T195500.058+0530	4120	5456	Internal\Engine	RLS64	3.0.50501.0409.10	20161005T155126.000+0530	Normal	0	2	0	0	0	0	0	0	2	2	0	0	0	0	0	1	0	1	0	36	176	4868	4868	0	0	0	0	0.000000	0
INFO	20161005T200000.129+0530	4120	5456	Internal\Engine	RLS64	3.0.50501.0409.10	20161005T155126.000+0530	Normal	0	2	0	0	0	0	0	0	2	2	0	0	0	0	0	1	0	1	0	36	176	4868	4868	0	0	0	0	0.000000	0
INFO	20161005T200500.168+0530	4120	5456	Internal\Engine	RLS64	3.0.50501.0409.10	20161005T155126.000+0530	Normal	0	2	0	0	0	0	0	0	2	2	0	0	0	0	0	1	0	1	0	36	176	4868	4868	0	0	0	0	0.000000	0
INFO	20161005T201000.184+0530	4120	5456	Internal\Engine	RLS64	3.0.50501.0409.10	20161005T155126.000+0530	Normal	0	2	0	0	0	0	0	0	2	2	0	0	0	0	0	1	0	1	0	36	176	4867	4867	0	0	0	0	0.000000	0
INFO	20161005T201500.013+0530	4120	5456	Internal\Engine	RLS64	3.0.50501.0409.10	20161005T155126.000+0530	Normal	0	2	0	0	0	0	0	0	2	2	0	0	0	0	0	1	0	1	0	36	176	4864	4864	0	0	0	0	0.000000	0
INFO	20161005T202001.008+0530	4120	5456	Internal\Engine	RLS64	3.0.50501.0409.10	20161005T155126.000+0530	Normal	0	2	0	0	0	0	0	0	2	2	0	0	0	0	0	1	0	1	0	36	176	4865	4865	0	0	0	0	0.000000	0
INFO	20161005T202500.119+0530	4120	5456	Internal\Engine	RLS64	3.0.50501.0409.10	20161005T155126.000+0530	Normal	0	2	0	0	0	0	0	0	2	2	0	0	0	0	0	1	0	1	0	36	176	4853	4853	0	0	0	0	0.000000	0
INFO	20161005T203001.015+0530	4120	5456	Internal\Engine	RLS64	3.0.50501.0409.10	20161005T155126.000+0530	Normal	0	2	0	0	0	0	0	0	2	2	0	0	0	0	0	1	0	1	0	36	175	4858	4858	0	0	0	0	0.000000	0
INFO	20161005T203500.025+0530	4120	5456	Internal\Engine	RLS64	3.0.50501.0409.10	20161005T155126.000+0530	Normal	0	2	0	0	0	0	0	0	2	2	0	0	0	0	0	1	0	1	0	36	176	4851	4851	0	0	0	0	0.000000	0
INFO	20161005T204000.049+0530	4120	5456	Internal\Engine	RLS64	3.0.50501.0409.10	20161005T155126.000+0530	Normal	0	2	0	0	0	0	0	0	2	2	0	0	0	0	0	1	0	1	0	36	176	4858	4858	0	0	0	0	0.000000	0
INFO	20161005T204854.690+0530	4120	5456	Internal\Engine	RLS64	3.0.50501.0409.10	20161005T155126.000+0530	Normal	0	2	0	0	0	0	0	0	2	2	0	0	0	0	0	1	0	1	0	36	175	4858	4858	0	0	0	0	0.000000	0
INFO	20161005T205400.014+0530	4120	5456	Internal\Engine	RLS64	3.0.50501.0409.10	20161005T155126.000+0530	Normal	0	2	0	0	0	0	0	0	2	2	0	0	0	0	0	1	0	1	0	36	175	4855	4855	0	0	0	0	0.000000	0
INFO	20161005T205901.008+0530	4120	5456	Internal\Engine	RLS64	3.0.50501.0409.10	20161005T155126.000+0530	Normal	0	2	0	0	0	0	0	0	2	2	0	0	0	0	0	1	0	1	0	36	176	4859	4859	0	0	0	0	0.000000	0
