﻿2016-10-05 16:17:39      Execution started.
2016-10-05 16:17:39      Qlik Sense Server Version     3.0.0+Build:37.release/ms17
2016-10-05 16:17:39      CPU Target                    x64
2016-10-05 16:17:39      Operating System              Windows 7 Professional Service Pack 1 (64 bit edition)
2016-10-05 16:17:39      Wow64 mode                    Not using Wow64
2016-10-05 16:17:39      Language                      0409 English (United States) English
2016-10-05 16:17:39      Country                       1 United States United States
2016-10-05 16:17:39      MDAC Version                  6.1.7601.17514
2016-10-05 16:17:39      MDAC Full Install Version     6.1.7601.17514
2016-10-05 16:17:39      PreferredCompression          2
2016-10-05 16:17:39      EnableParallelReload          1
2016-10-05 16:17:39      ParallelizeQvdLoads           1
2016-10-05 16:17:39      EnableFlushLog                0
2016-10-05 16:17:39      UserLogfileCharset            65001
2016-10-05 16:17:39      OdbcLoginTimeout              -1
2016-10-05 16:17:39      OdbcConnectionTimeout         -1
2016-10-05 16:17:39      LongestPossibleLine           1048576
2016-10-05 16:17:39      ScriptWantsDbWrite            false
2016-10-05 16:17:39      ScriptWantsExe                false
2016-10-05 16:17:39      LogFile CodePage Used:        65001
2016-10-05 16:17:39      UseMemoryFillPattern          1
2016-10-05 16:17:39      ScriptMode                    Standard (limits system access)
2016-10-05 16:17:39      ReloadCodebase                Classic
2016-10-05 16:17:39      Reload Executed By            Personal\Me
2016-10-05 16:17:39      Process Executing             Qlik Sense Server
2016-10-05 16:17:39      Process ID                    4120
2016-10-05 16:17:39 0002 SET ThousandSep=','
2016-10-05 16:17:39 0003 SET DecimalSep='.'
2016-10-05 16:17:39 0004 SET MoneyThousandSep=','
2016-10-05 16:17:39 0005 SET MoneyDecimalSep='.'
2016-10-05 16:17:39 0006 SET MoneyFormat='$#,##0.00;($#,##0.00)'
2016-10-05 16:17:39 0007 SET TimeFormat='h:mm:ss TT'
2016-10-05 16:17:39 0008 SET DateFormat='M/D/YYYY'
2016-10-05 16:17:39 0009 SET TimestampFormat='M/D/YYYY h:mm:ss[.fff] TT'
2016-10-05 16:17:39 0010 SET FirstWeekDay=6
2016-10-05 16:17:39 0011 SET BrokenWeeks=1
2016-10-05 16:17:39 0012 SET ReferenceDay=0
2016-10-05 16:17:39 0013 SET FirstMonthOfYear=1
2016-10-05 16:17:39 0014 SET CollationLocale='en-US'
2016-10-05 16:17:39 0015 SET MonthNames='Jan;Feb;Mar;Apr;May;Jun;Jul;Aug;Sep;Oct;Nov;Dec'
2016-10-05 16:17:39 0016 SET LongMonthNames='January;February;March;April;May;June;July;August;September;October;November;December'
2016-10-05 16:17:39 0017 SET DayNames='Mon;Tue;Wed;Thu;Fri;Sat;Sun'
2016-10-05 16:17:39 0018 SET LongDayNames='Monday;Tuesday;Wednesday;Thursday;Friday;Saturday;Sunday'
2016-10-05 16:17:39 0023 [Sheet1]:
2016-10-05 16:17:39 0024 LOAD [Date],
2016-10-05 16:17:39 0025 	[Salesperson],
2016-10-05 16:17:39 0026 	[SalesPast],
2016-10-05 16:17:39 0027 	[QtyPast],
2016-10-05 16:17:39 0028 	[Sales],
2016-10-05 16:17:39 0029 	[Qty]
2016-10-05 16:17:39 0030  FROM [lib://Downloads/CutomScattor.xlsx]
2016-10-05 16:17:39 0031 (ooxml, embedded labels, table is Sheet1)
2016-10-05 16:17:39      	6 fields found: Date, Salesperson, SalesPast, QtyPast, Sales, Qty, 
2016-10-05 16:17:39      2 lines fetched
2016-10-05 16:17:39 0032 RENAME FIELD [Salesperson] TO [Sheet1_Salesperson_5c4a0c35-c858-8fe2-6f55-46cdd743]
2016-10-05 16:17:39 0033 RENAME FIELD [SalesPast] TO [Sheet1_SalesPast_60ac4ee5-15a0-333f-6e19-dcca4011]
2016-10-05 16:17:39 0034 RENAME FIELD [QtyPast] TO [Sheet1_QtyPast_b004ce7f-874a-a4b0-04fd-36430cf4]
2016-10-05 16:17:39 0035 RENAME FIELD [Sales] TO [Sheet1_Sales_d1c791df-aca8-f0da-9127-9795490c]
2016-10-05 16:17:39 0036 RENAME FIELD [Date] TO [Sheet1_Date_72075bfd-2509-43e4-0a13-6313cb63]
2016-10-05 16:17:39 0037 RENAME FIELD [Qty] TO [Sheet1_Qty_bd0d144b-7751-74a7-e445-eca9a687]
2016-10-05 16:17:39 0039 RENAME FIELD [Sheet1_Salesperson_5c4a0c35-c858-8fe2-6f55-46cdd743] TO [Sheet1.Salesperson]
2016-10-05 16:17:39 0040 RENAME FIELD [Sheet1_SalesPast_60ac4ee5-15a0-333f-6e19-dcca4011] TO [Sheet1.SalesPast]
2016-10-05 16:17:39 0041 RENAME FIELD [Sheet1_QtyPast_b004ce7f-874a-a4b0-04fd-36430cf4] TO [Sheet1.QtyPast]
2016-10-05 16:17:39 0042 RENAME FIELD [Sheet1_Sales_d1c791df-aca8-f0da-9127-9795490c] TO [Sheet1.Sales]
2016-10-05 16:17:39 0043 RENAME FIELD [Sheet1_Date_72075bfd-2509-43e4-0a13-6313cb63] TO [Sheet1.Date]
2016-10-05 16:17:39 0044 RENAME FIELD [Sheet1_Qty_bd0d144b-7751-74a7-e445-eca9a687] TO [Sheet1.Qty]
2016-10-05 16:17:39      Execution finished.
