::ffff:127.0.0.1 - - [04/Oct/2016:10:32:29 +0000] "GET /privileges HTTP/1.1" 200 1965 "http://localhost:4848/hub/" "Mozilla/5.0 (Windows NT 6.1; Win64; x64) AppleWebKit/537.36 (KHTML, like Gecko) Chrome/47.0.2526.16 Safari/537.36"
::ffff:127.0.0.1 - - [04/Oct/2016:10:32:30 +0000] "GET /user/info HTTP/1.1" 200 138 "http://localhost:4848/hub/" "Mozilla/5.0 (Windows NT 6.1; Win64; x64) AppleWebKit/537.36 (KHTML, like Gecko) Chrome/47.0.2526.16 Safari/537.36"
::ffff:127.0.0.1 - - [04/Oct/2016:10:32:30 +0000] "GET /streams HTTP/1.1" 200 2 "http://localhost:4848/hub/" "Mozilla/5.0 (Windows NT 6.1; Win64; x64) AppleWebKit/537.36 (KHTML, like Gecko) Chrome/47.0.2526.16 Safari/537.36"
::ffff:127.0.0.1 - - [04/Oct/2016:10:32:30 +0000] "GET /reports HTTP/1.1" 200 2 "http://localhost:4848/hub/" "Mozilla/5.0 (Windows NT 6.1; Win64; x64) AppleWebKit/537.36 (KHTML, like Gecko) Chrome/47.0.2526.16 Safari/537.36"
::ffff:127.0.0.1 - - [04/Oct/2016:10:32:30 +0000] "GET /qvdocuments HTTP/1.1" 200 2 "http://localhost:4848/hub/" "Mozilla/5.0 (Windows NT 6.1; Win64; x64) AppleWebKit/537.36 (KHTML, like Gecko) Chrome/47.0.2526.16 Safari/537.36"
::ffff:127.0.0.1 - - [04/Oct/2016:10:32:31 +0000] "GET /apps HTTP/1.1" 200 3167 "http://localhost:4848/hub/" "Mozilla/5.0 (Windows NT 6.1; Win64; x64) AppleWebKit/537.36 (KHTML, like Gecko) Chrome/47.0.2526.16 Safari/537.36"
::ffff:127.0.0.1 - - [04/Oct/2016:10:33:28 +0000] "OPTIONS /apps HTTP/1.1" 200 2 "http://localhost:4848/hub/my/work" "Mozilla/5.0 (Windows NT 6.1; Win64; x64) AppleWebKit/537.36 (KHTML, like Gecko) Chrome/47.0.2526.16 Safari/537.36"
::ffff:127.0.0.1 - - [04/Oct/2016:10:33:28 +0000] "POST /apps HTTP/1.1" 201 489 "http://localhost:4848/hub/my/work" "Mozilla/5.0 (Windows NT 6.1; Win64; x64) AppleWebKit/537.36 (KHTML, like Gecko) Chrome/47.0.2526.16 Safari/537.36"
::ffff:127.0.0.1 - - [05/Oct/2016:04:31:34 +0000] "GET /apps HTTP/1.1" 200 3574 "http://localhost:4848/hub/my/work" "Mozilla/5.0 (Windows NT 6.1; Win64; x64) AppleWebKit/537.36 (KHTML, like Gecko) Chrome/47.0.2526.16 Safari/537.36"
::ffff:127.0.0.1 - - [05/Oct/2016:04:35:12 +0000] "GET /apps HTTP/1.1" 304 - "http://localhost:4848/hub/my/work" "Mozilla/5.0 (Windows NT 6.1; Win64; x64) AppleWebKit/537.36 (KHTML, like Gecko) Chrome/47.0.2526.16 Safari/537.36"
